<svg width="18" height="18" viewBox="0 0 18 18" fill="none" xmlns="http://www.w3.org/2000/svg">
<g clip-path="url(#clip0)">
<path d="M1.3133 2.61096C2.2011 1.60359 3.43272 1.04883 4.78125 1.04883C6.67786 1.04883 7.87862 2.18156 8.55193 3.13184C8.72662 3.37842 8.87523 3.62568 9 3.85834C9.12477 3.62568 9.27334 3.37842 9.44807 3.13184C10.1214 2.18156 11.3221 1.04883 13.2187 1.04883C14.5673 1.04883 15.7989 1.60363 16.6867 2.611C17.5336 3.57196 18 4.85896 18 6.2349C18 7.73266 17.4152 9.12573 16.1597 10.6189C15.0377 11.9534 13.4234 13.329 11.5541 14.9219C10.8576 15.5155 10.1372 16.1293 9.37037 16.8003L9.34734 16.8204C9.24792 16.9075 9.12396 16.951 9 16.951C8.87604 16.951 8.75208 16.9075 8.65266 16.8204L8.62963 16.8003C7.86277 16.1293 7.14245 15.5155 6.44579 14.9218C4.5766 13.329 2.96234 11.9535 1.84025 10.6189C0.584752 9.12569 -1.32303e-06 7.73266 -1.45397e-06 6.2349C-1.57426e-06 4.85896 0.466416 3.57196 1.3133 2.61096ZM7.12993 14.1191C7.7304 14.6308 8.34838 15.1574 9 15.7239C9.65159 15.1575 10.2696 14.6308 10.8702 14.1191C14.5285 11.0017 16.9453 8.94218 16.9453 6.2349C16.9453 5.11588 16.5725 4.07652 15.8955 3.30832C15.2107 2.5314 14.2601 2.10352 13.2187 2.10352C11.7728 2.10352 10.8381 2.9943 10.3087 3.74159C9.83373 4.4118 9.58591 5.08744 9.5014 5.34678C9.4307 5.56387 9.2283 5.71079 9 5.71079C8.77169 5.71079 8.5693 5.56387 8.4986 5.34678C8.41409 5.08744 8.16627 4.4118 7.69134 3.74155C7.16189 2.99431 6.22719 2.10352 4.78125 2.10352C3.73989 2.10352 2.7893 2.5314 2.10456 3.30832C1.42752 4.07652 1.05469 5.11588 1.05469 6.2349C1.05469 8.94218 3.4715 11.0017 7.12993 14.1191Z" fill="#858585"/>
</g>
<defs>
<clipPath id="clip0">
<rect width="18" height="18" fill="white" transform="matrix(-1 8.74228e-08 8.74228e-08 1 18 0)"/>
</clipPath>
</defs>
</svg>
