<svg width="56" height="56" viewBox="0 0 56 56" fill="none" xmlns="http://www.w3.org/2000/svg">
<g clip-path="url(#clip0)">
<path d="M3.5003 3.81034C-0.900365 8.38134 0.000302181 13.237 0.000302181 27.9883C0.000302181 40.2383 -2.13703 52.5187 9.04897 55.4097C12.542 56.308 43.4913 56.308 46.9796 55.405C51.637 54.2033 55.4263 50.4257 55.9443 43.8387C56.0166 42.9193 56.0166 13.0737 55.942 12.1357C55.3913 5.11934 51.0723 1.07567 45.3813 0.256673C44.077 0.0676732 43.8156 0.0116732 37.1236 6.52671e-06C13.3866 0.0116732 8.1833 -1.04533 3.5003 3.81034Z" fill="url(#paint0_linear)"/>
<path d="M27.9956 7.3244C19.5232 7.3244 11.4779 6.57073 8.40488 14.4574C7.13555 17.7147 7.31988 21.9451 7.31988 28.0024C7.31988 33.3177 7.14955 38.3134 8.40488 41.5451C11.4709 49.4364 19.5816 48.6804 27.9909 48.6804C36.1039 48.6804 44.4689 49.5251 47.5792 41.5451C48.8509 38.2551 48.6642 34.0877 48.6642 28.0024C48.6642 19.9244 49.1099 14.7094 45.1922 10.7941C41.2256 6.8274 35.8612 7.3244 27.9862 7.3244H27.9956ZM26.1429 11.0507C43.8156 11.0227 46.0649 9.05807 44.8235 36.3511C44.3825 46.0041 37.0325 44.9447 27.9979 44.9447C11.5245 44.9447 11.0509 44.4734 11.0509 27.9931C11.0509 11.3214 12.3576 11.0601 26.1429 11.0461V11.0507ZM39.0322 14.4831C37.6625 14.4831 36.5519 15.5937 36.5519 16.9634C36.5519 18.3331 37.6625 19.4437 39.0322 19.4437C40.4019 19.4437 41.5126 18.3331 41.5126 16.9634C41.5126 15.5937 40.4019 14.4831 39.0322 14.4831ZM27.9956 17.3834C22.1319 17.3834 17.3789 22.1387 17.3789 28.0024C17.3789 33.8661 22.1319 38.6191 27.9956 38.6191C33.8592 38.6191 38.6099 33.8661 38.6099 28.0024C38.6099 22.1387 33.8592 17.3834 27.9956 17.3834ZM27.9956 21.1097C37.1072 21.1097 37.1189 34.8951 27.9956 34.8951C18.8862 34.8951 18.8722 21.1097 27.9956 21.1097Z" fill="white"/>
</g>
<defs>
<linearGradient id="paint0_linear" x1="3.60768" y1="52.4232" x2="55.6538" y2="7.37795" gradientUnits="userSpaceOnUse">
<stop stop-color="#FFDD55"/>
<stop offset="0.5" stop-color="#FF543E"/>
<stop offset="1" stop-color="#C837AB"/>
</linearGradient>
<clipPath id="clip0">
<rect width="56" height="56" fill="white"/>
</clipPath>
</defs>
</svg>
